Core genes	(100% <= strains <= 100%)	41
Soft core genes	(95% <= strains < 100%)	0
Shell genes	(15% <= strains < 95%)	4806
Cloud genes	(0% <= strains < 15%)	541
Total genes	(0% <= strains <= 100%)	5388
